2018-06-26 11:22:43,055 INFO com.aliyun.oss.demo.HelloOSS: Started
2018-06-26 11:22:43,685 INFO com.aliyun.oss.demo.HelloOSS: Completed
2018-06-26 11:23:18,219 INFO com.aliyun.oss.demo.HelloOSS: Started
2018-06-26 11:23:19,385 INFO com.aliyun.oss.demo.HelloOSS: Completed
2018-06-28 10:14:51,797 INFO com.aliyun.oss.demo.HelloOSS: Started
2018-06-28 10:14:53,449 INFO com.aliyun.oss.demo.HelloOSS: Completed
2020-01-12 22:01:22,098 INFO com.aliyun.oss.demo.HelloOSS: Started
2020-01-12 22:01:23,029 INFO com.aliyun.oss.demo.HelloOSS: Completed
2020-01-12 22:28:55,706 INFO com.aliyun.oss.demo.HelloOSS: Started
2020-01-12 22:28:56,731 INFO com.aliyun.oss.demo.HelloOSS: Completed
2020-01-12 22:29:15,150 INFO com.aliyun.oss.demo.HelloOSS: Started
2020-01-12 22:29:17,446 WARN com.aliyun.oss: [Server]Unable to execute HTTP request: The bucket you are attempting to access must be addressed using the specified endpoint. Please send all future requests to this endpoint.
[ErrorCode]: AccessDenied
[RequestId]: 5E1B2D3D04ACC035354A6218
[HostId]: test0001.oss-cn-chengdu.aliyuncs.com
[ResponseError]:
<?xml version="1.0" encoding="UTF-8"?>
<Error>
  <Code>AccessDenied</Code>
  <Message>The bucket you are attempting to access must be addressed using the specified endpoint. Please send all future requests to this endpoint.</Message>
  <RequestId>5E1B2D3D04ACC035354A6218</RequestId>
  <HostId>test0001.oss-cn-chengdu.aliyuncs.com</HostId>
  <Bucket>test0001</Bucket>
  <Endpoint>oss-cn-hangzhou.aliyuncs.com</Endpoint>
</Error>

2020-01-12 22:29:17,858 WARN com.aliyun.oss: [Server]Unable to execute HTTP request: The bucket you access does not belong to you.
[ErrorCode]: AccessDenied
[RequestId]: 5E1B2D3D04ACC03535156418
[HostId]: test0001.oss-cn-chengdu.aliyuncs.com
[ResponseError]:
<?xml version="1.0" encoding="UTF-8"?>
<Error>
  <Code>AccessDenied</Code>
  <Message>The bucket you access does not belong to you.</Message>
  <RequestId>5E1B2D3D04ACC03535156418</RequestId>
  <HostId>test0001.oss-cn-chengdu.aliyuncs.com</HostId>
</Error>

2020-01-12 22:29:17,862 INFO com.aliyun.oss.demo.HelloOSS: Completed
2020-01-12 22:30:42,584 INFO com.aliyun.oss.demo.HelloOSS: Started
2020-01-12 22:30:48,412 INFO com.aliyun.oss.demo.HelloOSS: Completed
